Task_0/SEQUENCE_DETECTOR/simulation/qsim/SEQUENCE_DETECTOR.msim.vcd
$comment
	File created using the following command:
		vcd file SEQUENCE_DETECTOR.msim.vcd -direction
$end
$date
	Tue Sep 17 21:58:59 2024
$end
$version
	ModelSim Version 2020.1
$end
$timescale
	1ps
$end

$scope module sequence_detector_vlg_vec_tst $end
$var reg 1 ! clk $end
$var reg 4 " digit [0:3] $end
$var wire 1 # pattern $end

$scope module i1 $end
$var wire 1 $ gnd $end
$var wire 1 % vcc $end
$var wire 1 & unknown $end
$var tri1 1 ' devclrn $end
$var tri1 1 ( devpor $end
$var tri1 1 ) devoe $end
$var wire 1 * pattern~output_o $end
$var wire 1 + clk~input_o $end
$var wire 1 , clk~inputclkctrl_outclk $end
$var wire 1 - digit[0]~input_o $end
$var wire 1 . digit[3]~input_o $end
$var wire 1 / digit[2]~input_o $end
$var wire 1 0 pattern~0_combout $end
$var wire 1 1 digit[1]~input_o $end
$var wire 1 2 state~8_combout $end
$var wire 1 3 Selector0~0_combout $end
$var wire 1 4 state.ST_ONE~q $end
$var wire 1 5 state~11_combout $end
$var wire 1 6 state.ST_ZERO~q $end
$var wire 1 7 state~10_combout $end
$var wire 1 8 state.ST_NINE~q $end
$var wire 1 9 state~9_combout $end
$var wire 1 : state.ST_FOUR~feeder_combout $end
$var wire 1 ; state.ST_FOUR~q $end
$var wire 1 < pattern~1_combout $end
$var wire 1 = pattern~reg0_q $end
$upscope $end
$upscope $end
$enddefinitions $end
#0
$dumpvars
0!
b11 "
0#
0$
1%
x&
1'
1(
1)
0*
0+
0,
0-
1.
1/
00
01
02
03
04
05
06
07
08
09
0:
0;
0<
0=
$end
#5000
1!
1+
1,
#10000
b1 "
b101 "
0!
0/
11
0+
0,
#15000
1!
1+
1,
#20000
b100 "
b110 "
0!
0.
1/
0+
0,
#25000
1!
1+
1,
#30000
b10 "
b11 "
0!
1.
01
0+
0,
#35000
1!
1+
1,
#40000
b1011 "
0!
1-
0+
0,
#45000
1!
1+
1,
#50000
b1111 "
b1110 "
0!
0.
11
0+
0,
#55000
1!
1+
1,
#60000
b1010 "
b1011 "
0!
1.
01
0+
0,
#65000
1!
1+
1,
#70000
b1001 "
b1101 "
0!
0/
11
0+
0,
#75000
1!
1+
1,
#80000
b1111 "
b1011 "
0!
1/
01
0+
0,
#85000
1!
1+
1,
#90000
b1010 "
0!
0.
0+
0,
#95000
1!
1+
1,
#100000
b10 "
b0 "
b1 "
0!
1.
0/
0-
0+
0,
12
15
13
#105000
1!
1+
1,
16
14
05
03
#110000
b0 "
0!
0.
0+
0,
02
10
17
13
#115000
1!
1+
1,
18
06
07
03
#120000
b100 "
b1100 "
b1110 "
b1111 "
0!
1.
1/
11
1-
0+
0,
00
#125000
1!
1+
1,
08
04
#130000
b1011 "
b11 "
b1 "
b0 "
0!
0.
0/
01
0-
0+
0,
10
#135000
1!
1+
1,
#140000
b100 "
b110 "
0!
1/
11
0+
0,
00
#145000
1!
1+
1,
#150000
b10 "
b0 "
0!
0/
01
0+
0,
10
#155000
1!
1+
1,
#160000
b1000 "
b1100 "
0!
11
1-
0+
0,
00
#165000
1!
1+
1,
#170000
b1110 "
b110 "
b10 "
0!
1/
01
0-
0+
0,
#175000
1!
1+
1,
#180000
b1010 "
b1110 "
0!
11
1-
0+
0,
#185000
1!
1+
1,
#190000
b1111 "
0!
1.
0+
0,
#195000
1!
1+
1,
#200000
b1101 "
0!
0/
0+
0,
#205000
1!
1+
1,
#210000
b101 "
b1 "
b0 "
b10 "
0!
0.
1/
01
0-
0+
0,
#215000
1!
1+
1,
#220000
b1010 "
0!
1-
0+
0,
#225000
1!
1+
1,
#230000
b1011 "
b11 "
0!
1.
0-
0+
0,
#235000
1!
1+
1,
#240000
b111 "
b101 "
b100 "
b1100 "
0!
0.
0/
11
1-
0+
0,
#245000
1!
1+
1,
#250000
b1000 "
b0 "
0!
01
0-
0+
0,
10
#255000
1!
1+
1,
#260000
b10 "
b110 "
b1110 "
0!
1/
11
1-
0+
0,
00
#265000
1!
1+
1,
#270000
b110 "
0!
0-
0+
0,
#275000
1!
1+
1,
#280000
b111 "
b101 "
b1 "
b1001 "
0!
1.
0/
01
1-
0+
0,
12
#285000
1!
1+
1,
#290000
0!
0+
0,
#295000
1!
1+
1,
#300000
b1000 "
0!
0.
0+
0,
02
#305000
1!
1+
1,
#310000
b1010 "
b10 "
0!
1/
0-
0+
0,
#315000
1!
1+
1,
#320000
b11 "
b1 "
b1001 "
0!
1.
0/
1-
0+
0,
12
#325000
1!
1+
1,
#330000
b1101 "
b101 "
0!
11
0-
0+
0,
02
15
05
13
03
#335000
1!
1+
1,
#340000
b1 "
0!
01
0+
0,
12
15
13
#345000
1!
1+
1,
16
14
05
03
#350000
b1001 "
b1101 "
0!
11
1-
0+
0,
02
#355000
1!
1+
1,
06
04
#360000
b1100 "
b100 "
b0 "
0!
0.
01
0-
0+
0,
10
#365000
1!
1+
1,
#370000
b1 "
0!
1.
0+
0,
12
00
15
13
#375000
1!
1+
1,
16
14
05
03
#380000
b1001 "
b1101 "
0!
11
1-
0+
0,
02
#385000
1!
1+
1,
06
04
#390000
b1111 "
b1110 "
b1010 "
0!
0.
1/
01
0+
0,
#395000
1!
1+
1,
#400000
b1000 "
b1001 "
0!
1.
0/
0+
0,
12
#405000
1!
1+
1,
#410000
b1011 "
0!
1/
0+
0,
02
#415000
1!
1+
1,
#420000
b1111 "
b1101 "
0!
0/
11
0+
0,
#425000
1!
1+
1,
#430000
b101 "
b100 "
b0 "
0!
0.
01
0-
0+
0,
10
#435000
1!
1+
1,
#440000
b1 "
b101 "
0!
1.
11
0+
0,
00
#445000
1!
1+
1,
#450000
b1101 "
b1100 "
b1000 "
0!
0.
01
1-
0+
0,
#455000
1!
1+
1,
#460000
b1010 "
b10 "
0!
1/
0-
0+
0,
#465000
1!
1+
1,
#470000
b11 "
b111 "
b101 "
0!
1.
0/
11
0+
0,
#475000
1!
1+
1,
#480000
b111 "
0!
1/
0+
0,
#485000
1!
1+
1,
#490000
b110 "
b100 "
0!
0.
0/
0+
0,
10
#495000
1!
1+
1,
#500000
b1100 "
b1000 "
0!
01
1-
0+
0,
00
#505000
1!
1+
1,
#510000
b1001 "
b1011 "
0!
1.
1/
0+
0,
#515000
1!
1+
1,
#520000
b11 "
b10 "
b0 "
0!
0.
0/
0-
0+
0,
10
#525000
1!
1+
1,
#530000
b100 "
0!
11
0+
0,
#535000
1!
1+
1,
#540000
b1100 "
b1101 "
b1001 "
0!
1.
01
1-
0+
0,
12
00
#545000
1!
1+
1,
#550000
b1011 "
b11 "
b10 "
b110 "
0!
0.
1/
11
0-
0+
0,
02
15
05
13
03
#555000
1!
1+
1,
#560000
0!
0+
0,
#565000
1!
1+
1,
#570000
b100 "
b1100 "
b1000 "
0!
0/
01
1-
0+
0,
#575000
1!
1+
1,
#580000
b1100 "
0!
11
0+
0,
#585000
1!
1+
1,
#590000
b1110 "
b110 "
0!
1/
0-
0+
0,
#595000
1!
1+
1,
#600000
0!
0+
0,
#605000
1!
1+
1,
#610000
b111 "
b11 "
0!
1.
01
0+
0,
#615000
1!
1+
1,
#620000
b1011 "
0!
1-
0+
0,
#625000
1!
1+
1,
#630000
b1111 "
b111 "
0!
11
0-
0+
0,
#635000
1!
1+
1,
#640000
b101 "
b1101 "
0!
0/
1-
0+
0,
#645000
1!
1+
1,
#650000
b1100 "
b1000 "
b0 "
0!
0.
01
0-
0+
0,
10
#655000
1!
1+
1,
#660000
b1 "
b101 "
0!
1.
11
0+
0,
00
#665000
1!
1+
1,
#670000
b111 "
0!
1/
0+
0,
#675000
1!
1+
1,
#680000
b110 "
0!
0.
0+
0,
#685000
1!
1+
1,
#690000
b1110 "
b1100 "
b1101 "
0!
1.
0/
1-
0+
0,
#695000
1!
1+
1,
#700000
b1001 "
b1 "
b0 "
0!
0.
01
0-
0+
0,
10
#705000
1!
1+
1,
#710000
b1 "
0!
1.
0+
0,
12
00
15
13
#715000
1!
1+
1,
16
14
05
03
#720000
b11 "
b111 "
0!
1/
11
0+
0,
02
#725000
1!
1+
1,
06
04
#730000
b1111 "
b1110 "
b1100 "
b1000 "
0!
0.
0/
01
1-
0+
0,
#735000
1!
1+
1,
#740000
b1010 "
b1110 "
0!
1/
11
0+
0,
#745000
1!
1+
1,
#750000
b110 "
b10 "
0!
01
0-
0+
0,
#755000
1!
1+
1,
#760000
b0 "
b100 "
0!
0/
11
0+
0,
10
#765000
1!
1+
1,
#770000
0!
0+
0,
#775000
1!
1+
1,
#780000
b101 "
b1101 "
b1111 "
0!
1.
1/
1-
0+
0,
00
#785000
1!
1+
1,
#790000
b1011 "
0!
01
0+
0,
#795000
1!
1+
1,
#800000
b1010 "
b10 "
b110 "
0!
0.
11
0-
0+
0,
#805000
1!
1+
1,
#810000
b1110 "
0!
1-
0+
0,
#815000
1!
1+
1,
#820000
b1111 "
b1011 "
0!
1.
01
0+
0,
#825000
1!
1+
1,
#830000
b1001 "
b1101 "
0!
0/
11
0+
0,
#835000
1!
1+
1,
#840000
b1100 "
b1000 "
0!
0.
01
0+
0,
#845000
1!
1+
1,
#850000
b1010 "
b1011 "
0!
1.
1/
0+
0,
#855000
1!
1+
1,
#860000
0!
0+
0,
#865000
1!
1+
1,
#870000
b1001 "
b1000 "
0!
0.
0/
0+
0,
#875000
1!
1+
1,
#880000
b0 "
0!
0-
0+
0,
10
#885000
1!
1+
1,
#890000
b10 "
b11 "
0!
1.
1/
0+
0,
00
#895000
1!
1+
1,
#900000
b1011 "
b1001 "
0!
0/
1-
0+
0,
12
#905000
1!
1+
1,
#910000
b1 "
b11 "
0!
1/
0-
0+
0,
02
15
05
13
03
#915000
1!
1+
1,
#920000
b1011 "
b1001 "
0!
0/
1-
0+
0,
12
#925000
1!
1+
1,
#930000
b1101 "
b101 "
b111 "
0!
1/
11
0-
0+
0,
02
15
05
13
03
#935000
1!
1+
1,
#940000
b110 "
b10 "
0!
0.
01
0+
0,
#945000
1!
1+
1,
#950000
b0 "
0!
0/
0+
0,
10
#955000
1!
1+
1,
#960000
b10 "
0!
1/
0+
0,
00
#965000
1!
1+
1,
#970000
b110 "
b100 "
0!
0/
11
0+
0,
10
#975000
1!
1+
1,
#980000
b101 "
b111 "
0!
1.
1/
0+
0,
00
#985000
1!
1+
1,
#990000
b1111 "
b1110 "
0!
0.
1-
0+
0,
#995000
1!
1+
1,
