Task_1/eb_1039_task1a/t1a_fs_pwm/simulation/qsim/t1a_fs_pwm.msim.vcd
$comment
	File created using the following command:
		vcd file t1a_fs_pwm.msim.vcd -direction
$end
$date
	Wed Oct 16 12:45:23 2024
$end
$version
	ModelSim Version 2020.1
$end
$timescale
	1ps
$end

$scope module t1a_fs_pwm_bdf_vlg_vec_tst $end
$var reg 1 ! clk_50MHz $end
$var reg 4 " pulse_width [3:0] $end
$var wire 1 # clk_1MHz $end
$var wire 1 $ clk_500Hz $end
$var wire 1 % pwm_signal $end

$scope module i1 $end
$var wire 1 & gnd $end
$var wire 1 ' vcc $end
$var wire 1 ( unknown $end
$var tri1 1 ) devclrn $end
$var tri1 1 * devpor $end
$var tri1 1 + devoe $end
$var wire 1 , pulse_width[0]~input_o $end
$var wire 1 - pulse_width[1]~input_o $end
$var wire 1 . pulse_width[2]~input_o $end
$var wire 1 / pulse_width[3]~input_o $end
$var wire 1 0 clk_1MHz~output_o $end
$var wire 1 1 clk_500Hz~output_o $end
$var wire 1 2 pwm_signal~output_o $end
$var wire 1 3 clk_50MHz~input_o $end
$var wire 1 4 clk_50MHz~inputclkctrl_outclk $end
$var wire 1 5 b2v_inst1|Add0~3 $end
$var wire 1 6 b2v_inst1|Add0~4_combout $end
$var wire 1 7 b2v_inst1|Add0~5 $end
$var wire 1 8 b2v_inst1|Add0~6_combout $end
$var wire 1 9 b2v_inst1|counter~1_combout $end
$var wire 1 : b2v_inst1|Add0~7 $end
$var wire 1 ; b2v_inst1|Add0~8_combout $end
$var wire 1 < b2v_inst1|counter~0_combout $end
$var wire 1 = b2v_inst1|Add0~0_combout $end
$var wire 1 > b2v_inst1|counter~2_combout $end
$var wire 1 ? b2v_inst1|Add0~1 $end
$var wire 1 @ b2v_inst1|Add0~2_combout $end
$var wire 1 A b2v_inst1|Equal0~0_combout $end
$var wire 1 B b2v_inst1|clk_1MHz~0_combout $end
$var wire 1 C b2v_inst1|clk_1MHz~q $end
$var wire 1 D b2v_inst1|counter [4] $end
$var wire 1 E b2v_inst1|counter [3] $end
$var wire 1 F b2v_inst1|counter [2] $end
$var wire 1 G b2v_inst1|counter [1] $end
$var wire 1 H b2v_inst1|counter [0] $end
$upscope $end
$upscope $end
$enddefinitions $end
#0
$dumpvars
1!
bx "
1#
1$
1%
0&
1'
x(
1)
1*
1+
x,
x-
x.
x/
10
11
12
13
14
15
06
07
08
09
1:
0;
0<
1=
1>
0?
0@
0A
0B
0C
0H
0G
0F
0E
0D
$end
#10000
0!
03
04
#20000
1!
13
14
1H
1?
0=
1@
0>
#30000
0!
03
04
#40000
1!
13
14
1G
0H
05
0?
1=
0@
15
16
1@
1>
06
#50000
0!
03
04
#60000
1!
13
14
1H
1?
0=
05
0@
0>
16
#70000
0!
03
04
#80000
1!
13
14
0G
0H
1F
15
0?
1=
17
1@
06
07
18
16
0@
1>
08
19
09
#90000
0!
03
04
#100000
1!
13
14
1H
1?
0=
1@
0>
#110000
0!
03
04
#120000
1!
13
14
1G
0H
05
0?
1=
0@
17
15
06
1@
1>
18
07
16
08
19
09
#130000
0!
03
04
#140000
1!
13
14
1H
1?
0=
05
0@
0>
17
06
18
19
#150000
0!
03
04
#160000
1!
13
14
0G
0H
1E
0F
1A
15
0?
1=
0:
08
07
1@
16
1;
1:
18
1>
09
06
0@
0;
1<
19
0<
#170000
0!
03
04
#180000
1!
13
14
1H
0A
1?
0=
0>
1@
#190000
0!
03
04
#200000
1!
13
14
1G
0H
05
0?
1=
0@
15
16
1@
1>
06
#210000
0!
03
04
#220000
1!
13
14
1H
1?
0=
05
0@
0>
16
#230000
0!
03
04
#240000
1!
13
14
0G
0H
1F
15
0?
1=
17
1@
06
07
0:
08
16
0@
1>
1:
18
1;
09
0;
19
1<
0<
#250000
0!
03
04
#260000
1!
13
14
1H
1?
0=
1@
0>
#270000
0!
03
04
#280000
1!
13
14
1G
0H
05
0?
1=
0@
17
15
06
1@
1>
0:
08
07
16
1;
1:
18
09
0;
1<
19
0<
#290000
0!
03
04
#300000
1!
13
14
1H
1?
0=
05
0@
0>
17
06
0:
08
1;
09
1<
#310000
0!
03
04
#320000
1!
13
14
0G
0H
1D
0E
0F
15
0?
1=
0;
1:
18
07
1@
16
1;
08
06
0@
1>
0<
19
1<
09
#330000
0!
03
04
#340000
1!
13
14
1H
1?
0=
1@
0>
#350000
0!
03
04
#360000
1!
13
14
1G
0H
05
0?
1=
0@
15
16
1@
1>
06
#370000
0!
03
04
#380000
1!
13
14
1H
1?
0=
05
0@
0>
16
#390000
0!
03
04
#400000
1!
13
14
0G
0H
1F
15
0?
1=
17
1@
06
07
18
16
0@
1>
08
19
09
#410000
0!
03
04
#420000
1!
13
14
1H
1?
0=
1@
0>
#430000
0!
03
04
#440000
1!
13
14
1G
0H
05
0?
1=
0@
17
15
06
1@
1>
18
07
16
08
19
09
#450000
0!
03
04
#460000
1!
13
14
1H
1?
0=
05
0@
0>
17
06
18
19
#470000
0!
03
04
#480000
1!
13
14
0G
0H
1E
0F
1A
15
0?
1=
0:
08
07
1@
16
0;
1:
18
1B
0<
06
0@
1;
1<
09
0<
#490000
0!
03
04
#500000
1!
13
14
1C
0D
0E
00
0;
0A
08
0#
1>
1<
19
0<
09
#510000
0!
03
04
#520000
1!
13
14
1H
1?
0=
1@
0>
#530000
0!
03
04
#540000
1!
13
14
1G
0H
05
0?
1=
0@
15
16
1@
1>
06
#550000
0!
03
04
#560000
1!
13
14
1H
1?
0=
05
0@
0>
16
#570000
0!
03
04
#580000
1!
13
14
0G
0H
1F
15
0?
1=
17
1@
06
07
18
16
0@
1>
08
19
09
#590000
0!
03
04
#600000
1!
13
14
1H
1?
0=
1@
0>
#610000
0!
03
04
#620000
1!
13
14
1G
0H
05
0?
1=
0@
17
15
06
1@
1>
18
07
16
08
19
09
#630000
0!
03
04
#640000
1!
13
14
1H
1?
0=
05
0@
0>
17
06
18
19
#650000
0!
03
04
#660000
1!
13
14
0G
0H
1E
0F
1A
15
0?
1=
0:
08
07
1@
16
1;
1:
18
1>
09
06
0@
0;
1<
19
0<
#670000
0!
03
04
#680000
1!
13
14
1H
0A
1?
0=
0>
1@
#690000
0!
03
04
#700000
1!
13
14
1G
0H
05
0?
1=
0@
15
16
1@
1>
06
#710000
0!
03
04
#720000
1!
13
14
1H
1?
0=
05
0@
0>
16
#730000
0!
03
04
#740000
1!
13
14
0G
0H
1F
15
0?
1=
17
1@
06
07
0:
08
16
0@
1>
1:
18
1;
09
0;
19
1<
0<
#750000
0!
03
04
#760000
1!
13
14
1H
1?
0=
1@
0>
#770000
0!
03
04
#780000
1!
13
14
1G
0H
05
0?
1=
0@
17
15
06
1@
1>
0:
08
07
16
1;
1:
18
09
0;
1<
19
0<
#790000
0!
03
04
#800000
1!
13
14
1H
1?
0=
05
0@
0>
17
06
0:
08
1;
09
1<
#810000
0!
03
04
#820000
1!
13
14
0G
0H
1D
0E
0F
15
0?
1=
0;
1:
18
07
1@
16
1;
08
06
0@
1>
0<
19
1<
09
#830000
0!
03
04
#840000
1!
13
14
1H
1?
0=
1@
0>
#850000
0!
03
04
#860000
1!
13
14
1G
0H
05
0?
1=
0@
15
16
1@
1>
06
#870000
0!
03
04
#880000
1!
13
14
1H
1?
0=
05
0@
0>
16
#890000
0!
03
04
#900000
1!
13
14
0G
0H
1F
15
0?
1=
17
1@
06
07
18
16
0@
1>
08
19
09
#910000
0!
03
04
#920000
1!
13
14
1H
1?
0=
1@
0>
#930000
0!
03
04
#940000
1!
13
14
1G
0H
05
0?
1=
0@
17
15
06
1@
1>
18
07
16
08
19
09
#950000
0!
03
04
#960000
1!
13
14
1H
1?
0=
05
0@
0>
17
06
18
19
#970000
0!
03
04
#980000
1!
13
14
0G
0H
1E
0F
1A
15
0?
1=
0:
08
07
1@
16
0;
1:
18
0B
0<
06
0@
1;
1<
09
0<
