Stage_1/Task_0/TRAFFIC_LIGHT_CONTROLLER/simulation/qsim/TRAFFIC_LIGHT_CONTROLLER.msim.vcd
$comment
	File created using the following command:
		vcd file TRAFFIC_LIGHT_CONTROLLER.msim.vcd -direction
$end
$date
	Tue Sep 17 19:27:41 2024
$end
$version
	ModelSim Version 2020.1
$end
$timescale
	1ps
$end

$scope module traffic_light_controller_vlg_vec_tst $end
$var reg 1 ! clk $end
$var wire 1 " green $end
$var wire 1 # red $end
$var wire 1 $ yellow $end

$scope module i1 $end
$var wire 1 % gnd $end
$var wire 1 & vcc $end
$var wire 1 ' unknown $end
$var tri1 1 ( devclrn $end
$var tri1 1 ) devpor $end
$var tri1 1 * devoe $end
$var wire 1 + red~output_o $end
$var wire 1 , yellow~output_o $end
$var wire 1 - green~output_o $end
$var wire 1 . clk~input_o $end
$var wire 1 / state.ST_INIT~q $end
$var wire 1 0 state~10_combout $end
$var wire 1 1 state.ST_GREEN~q $end
$var wire 1 2 state.ST_YELLOW~q $end
$var wire 1 3 state.ST_RED~q $end
$var wire 1 4 red~reg0_q $end
$var wire 1 5 yellow~reg0_q $end
$var wire 1 6 green~reg0_q $end
$upscope $end
$upscope $end
$enddefinitions $end
#0
$dumpvars
0!
0"
0#
0$
0%
1&
x'
1(
1)
1*
0+
0,
0-
0.
0/
10
01
02
03
04
05
06
$end
#10000
1!
1.
1/
11
00
#20000
0!
0.
#30000
1!
1.
16
12
01
1-
1"
#40000
0!
0.
#50000
1!
1.
06
15
13
02
1,
0-
0"
1$
10
#60000
0!
0.
#70000
1!
1.
05
14
03
11
1+
0,
0$
1#
00
#80000
0!
0.
#90000
1!
1.
16
04
12
01
0+
1-
1"
0#
#100000
0!
0.
#110000
1!
1.
06
15
13
02
1,
0-
0"
1$
10
#120000
0!
0.
#130000
1!
1.
05
14
03
11
1+
0,
0$
1#
00
#140000
0!
0.
#150000
1!
1.
16
04
12
01
0+
1-
1"
0#
#160000
0!
0.
#170000
1!
1.
06
15
13
02
1,
0-
0"
1$
10
#180000
0!
0.
#190000
1!
1.
05
14
03
11
1+
0,
0$
1#
00
#200000
0!
0.
#210000
1!
1.
16
04
12
01
0+
1-
1"
0#
#220000
0!
0.
#230000
1!
1.
06
15
13
02
1,
0-
0"
1$
10
#240000
0!
0.
#250000
1!
1.
05
14
03
11
1+
0,
0$
1#
00
#260000
0!
0.
#270000
1!
1.
16
04
12
01
0+
1-
1"
0#
#280000
0!
0.
#290000
1!
1.
06
15
13
02
1,
0-
0"
1$
10
#300000
0!
0.
#310000
1!
1.
05
14
03
11
1+
0,
0$
1#
00
#320000
0!
0.
#330000
1!
1.
16
04
12
01
0+
1-
1"
0#
#340000
0!
0.
#350000
1!
1.
06
15
13
02
1,
0-
0"
1$
10
#360000
0!
0.
#370000
1!
1.
05
14
03
11
1+
0,
0$
1#
00
#380000
0!
0.
#390000
1!
1.
16
04
12
01
0+
1-
1"
0#
#400000
0!
0.
#410000
1!
1.
06
15
13
02
1,
0-
0"
1$
10
#420000
0!
0.
#430000
1!
1.
05
14
03
11
1+
0,
0$
1#
00
#440000
0!
0.
#450000
1!
1.
16
04
12
01
0+
1-
1"
0#
#460000
0!
0.
#470000
1!
1.
06
15
13
02
1,
0-
0"
1$
10
#480000
0!
0.
#490000
1!
1.
05
14
03
11
1+
0,
0$
1#
00
#500000
0!
0.
#510000
1!
1.
16
04
12
01
0+
1-
1"
0#
#520000
0!
0.
#530000
1!
1.
06
15
13
02
1,
0-
0"
1$
10
#540000
0!
0.
#550000
1!
1.
05
14
03
11
1+
0,
0$
1#
00
#560000
0!
0.
#570000
1!
1.
16
04
12
01
0+
1-
1"
0#
#580000
0!
0.
#590000
1!
1.
06
15
13
02
1,
0-
0"
1$
10
#600000
0!
0.
#610000
1!
1.
05
14
03
11
1+
0,
0$
1#
00
#620000
0!
0.
#630000
1!
1.
16
04
12
01
0+
1-
1"
0#
#640000
0!
0.
#650000
1!
1.
06
15
13
02
1,
0-
0"
1$
10
#660000
0!
0.
#670000
1!
1.
05
14
03
11
1+
0,
0$
1#
00
#680000
0!
0.
#690000
1!
1.
16
04
12
01
0+
1-
1"
0#
#700000
0!
0.
#710000
1!
1.
06
15
13
02
1,
0-
0"
1$
10
#720000
0!
0.
#730000
1!
1.
05
14
03
11
1+
0,
0$
1#
00
#740000
0!
0.
#750000
1!
1.
16
04
12
01
0+
1-
1"
0#
#760000
0!
0.
#770000
1!
1.
06
15
13
02
1,
0-
0"
1$
10
#780000
0!
0.
#790000
1!
1.
05
14
03
11
1+
0,
0$
1#
00
#800000
0!
0.
#810000
1!
1.
16
04
12
01
0+
1-
1"
0#
#820000
0!
0.
#830000
1!
1.
06
15
13
02
1,
0-
0"
1$
10
#840000
0!
0.
#850000
1!
1.
05
14
03
11
1+
0,
0$
1#
00
#860000
0!
0.
#870000
1!
1.
16
04
12
01
0+
1-
1"
0#
#880000
0!
0.
#890000
1!
1.
06
15
13
02
1,
0-
0"
1$
10
#900000
0!
0.
#910000
1!
1.
05
14
03
11
1+
0,
0$
1#
00
#920000
0!
0.
#930000
1!
1.
16
04
12
01
0+
1-
1"
0#
#940000
0!
0.
#950000
1!
1.
06
15
13
02
1,
0-
0"
1$
10
#960000
0!
0.
#970000
1!
1.
05
14
03
11
1+
0,
0$
1#
00
#980000
0!
0.
#990000
1!
1.
16
04
12
01
0+
1-
1"
0#
